󰘳 t     editorcmd
󰘳 w     webcmd
󰘳 d     dmenucmd
󰘳 󰘶 q   quitcmd
󰘳 m     mountcmd
󰘳 u     unmountcmd
󰘳 r     filecmd
󰘳 e     mailcmd
󰘳 s     synccmd
󰘳 a     audiocmd
󰘳 󰘶 a   mixercmd
󰘳 󰘶 p   passcmd
󰘳 󰌑     termcmd
󰘳 󰘶 b   togglebar
󰘳 j     focusstack
󰘳 k     focusstack
󰘳 )     incnmaster
󰘳 (     incnmaster
󰘳 h     setmfact
󰘳 l     setmfact
󰘳 󱁐     zoom
󰘳 󰌒     view
󰘳  q    killclient
󰘳 󰘶 t   setlayout 0
󰘳 󰘶 f   setlayout 1
󰘳 󰘶 m   setlayout 2
󰘳 󰘶 u   setlayout 3
󰘳 󰘶 󰌑   cyclelayout
󰘳 󰘶 󱁐   togglefloating
󰘳 0     view 0
󰘳 󰘶 0   tag 0
󰘳 ,     focusmon -1
󰘳 .     focusmon +1
󰘳 󰘶 ,   tagmon{.i = -1 }
󰘳 󰘶 .   tagmon{.i = +1 }
󰘳 1 0)
󰘳 2 1)
󰘳 3 2)
󰘳 4 3)
󰘳 5 4)
󰘳 6 5)
󰘳 7 6)
󰘳 8 7)
󰘳 9 8)
󰘳 󰘴 󰘶 q quit
